{
    "success": true,
    "code": 200,
    "message": "List semua webinar",
    "data": {
        "current_page": 1,
        "data": [
            {
                "id": 84,
                "name": "Admin Name",
                "email": "admin@purwanto.co.id",
                "start_date": "2023-08-21T04:04:22.000000Z",
                "end_date": "2023-09-21T04:04:22.000000Z",
                "status": "0"
            },
            {
                "id": 1,
                "name": "Admin Name",
                "email": "admin@purwanto.co.id",
                "start_date": "2023-08-21T04:04:22.000000Z",
                "end_date": "2023-09-21T04:04:22.000000Z",
                "status": "0"
            },
            {
                "id": 2,
                "name": "Admin Name",
                "email": "admin@purwanto.co.id",
                "start_date": "2023-08-21T04:04:22.000000Z",
                "end_date": "2023-09-21T04:04:22.000000Z",
                "status": "0"
            },
            {
                "id": 3,
                "name": "Admin Name",
                "email": "admin@purwanto.co.id",
                "start_date": "2023-08-21T04:04:22.000000Z",
                "end_date": "2023-09-21T04:04:22.000000Z",
                "status": "0"
            },
            {
                "id": 4,
                "name": "Admin Name",
                "email": "admin@purwanto.co.id",
                "start_date": "2023-08-21T04:04:22.000000Z",
                "end_date": "2023-09-21T04:04:22.000000Z",
                "status": "0"
            },
            {
                "id": 5,
                "name": "Admin Name",
                "email": "admin@purwanto.co.id",
                "start_date": "2023-08-21T04:04:22.000000Z",
                "end_date": "2023-09-21T04:04:22.000000Z",
                "status": "0"
            },
            {
                "id": 6,
                "name": "Admin Name",
                "email": "admin@purwanto.co.id",
                "start_date": "2023-08-21T04:04:22.000000Z",
                "end_date": "2023-09-21T04:04:22.000000Z",
                "status": "0"
            },
            {
                "id": 7,
                "name": "Admin Name",
                "email": "admin@purwanto.co.id",
                "start_date": "2023-08-21T04:04:22.000000Z",
                "end_date": "2023-09-21T04:04:22.000000Z",
                "status": "0"
            },
            {
                "id": 8,
                "name": "Admin Name",
                "email": "admin@purwanto.co.id",
                "start_date": "2023-08-21T04:04:22.000000Z",
                "end_date": "2023-09-21T04:04:22.000000Z",
                "status": "0"
            },
            {
                "id": 9,
                "name": "Admin Name",
                "email": "admin@purwanto.co.id",
                "start_date": "2023-08-21T04:04:22.000000Z",
                "end_date": "2023-09-21T04:04:22.000000Z",
                "status": "0"
            }
        ],
        "first_page_url": "http://127.0.0.1:8000/api/dashboard/webinars?page=1",
        "from": 1,
        "last_page": 9,
        "last_page_url": "http://127.0.0.1:8000/api/dashboard/webinars?page=9",
        "links": [
            {
                "url": null,
                "label": "&laquo; Previous",
                "active": false
            },
            {
                "url": "http://127.0.0.1:8000/api/dashboard/webinars?page=1",
                "label": "1",
                "active": true
            },
            {
                "url": "http://127.0.0.1:8000/api/dashboard/webinars?page=2",
                "label": "2",
                "active": false
            },
            {
                "url": "http://127.0.0.1:8000/api/dashboard/webinars?page=3",
                "label": "3",
                "active": false
            },
            {
                "url": "http://127.0.0.1:8000/api/dashboard/webinars?page=4",
                "label": "4",
                "active": false
            },
            {
                "url": "http://127.0.0.1:8000/api/dashboard/webinars?page=5",
                "label": "5",
                "active": false
            },
            {
                "url": "http://127.0.0.1:8000/api/dashboard/webinars?page=6",
                "label": "6",
                "active": false
            },
            {
                "url": "http://127.0.0.1:8000/api/dashboard/webinars?page=7",
                "label": "7",
                "active": false
            },
            {
                "url": "http://127.0.0.1:8000/api/dashboard/webinars?page=8",
                "label": "8",
                "active": false
            },
            {
                "url": "http://127.0.0.1:8000/api/dashboard/webinars?page=9",
                "label": "9",
                "active": false
            },
            {
                "url": "http://127.0.0.1:8000/api/dashboard/webinars?page=2",
                "label": "Next &raquo;",
                "active": false
            }
        ],
        "next_page_url": "http://127.0.0.1:8000/api/dashboard/webinars?page=2",
        "path": "http://127.0.0.1:8000/api/dashboard/webinars",
        "per_page": 10,
        "prev_page_url": null,
        "to": 10,
        "total": 84
    }
}