{
    "success": true,
    "code": 200,
    "message": "List semua webinar",
    "data": {
        "current_page": 1,
        "data": [
            {
                "id": 84,
                "eventtitle": "PAM Talk Ep.74 - Making Sure You Are Financially Secure - The Millennials and Gen Z's Ways",
                "eventdate": "2023-08-24 16:00:00",
                "eventmeetid": "84320474047",
                "eventstatus": 1,
                "created_at": "2023-08-21T04:04:22.000000Z",
                "updated_at": "2023-08-21T04:04:22.000000Z"
            },
            {
                "id": 1,
                "eventtitle": "PAM Talk Ep.01 -  Kenali Profil Investasi Anda & Mulai Cuan Dengan Investasi Reksadana",
                "eventdate": "2022-02-09 14:00:00",
                "eventmeetid": "84308643336",
                "eventstatus": 1,
                "created_at": null,
                "updated_at": null
            },
            {
                "id": 2,
                "eventtitle": "PAM Talk Ep.02 - Mengapa #LebihAmanDisini? ",
                "eventdate": "2022-02-18 14:30:00",
                "eventmeetid": "81664987877",
                "eventstatus": 1,
                "created_at": null,
                "updated_at": null
            },
            {
                "id": 3,
                "eventtitle": "PAM Talk Ep.03 - Investasi Reksadana Ala Milenial",
                "eventdate": "2022-02-25 04:00:00",
                "eventmeetid": "81999645824",
                "eventstatus": 1,
                "created_at": null,
                "updated_at": null
            },
            {
                "id": 4,
                "eventtitle": "PAM Talk Ep.04 - Kenali Profesi Di Dunia Pasar Modal Pada Era Digital",
                "eventdate": "2022-03-02 14:00:00",
                "eventmeetid": "81960643073",
                "eventstatus": 1,
                "created_at": null,
                "updated_at": null
            },
            {
                "id": 5,
                "eventtitle": "PAM Talk Ep.05 - Market Outlook 2022 & Antisipasi Kenaikan Fed Fund Rate",
                "eventdate": "2022-03-11 15:00:00",
                "eventmeetid": "82865159774",
                "eventstatus": 1,
                "created_at": null,
                "updated_at": null
            },
            {
                "id": 6,
                "eventtitle": "PAM Talk Ep.06 - Kenali Instrumen Obligasi Pada Portofolio Reksadana Campuran",
                "eventdate": "2022-03-18 14:30:00",
                "eventmeetid": "81192408910",
                "eventstatus": 1,
                "created_at": null,
                "updated_at": null
            },
            {
                "id": 7,
                "eventtitle": "PAM Talk Ep.07 - Mengenal Kode Etik Pengelolaan Reksadana #InvestasiAman",
                "eventdate": "2022-03-25 14:30:00",
                "eventmeetid": "82301515575",
                "eventstatus": 1,
                "created_at": null,
                "updated_at": null
            },
            {
                "id": 8,
                "eventtitle": "PAM Talk Ep.08 - Investasi Bijak Dengan Collaborate Fundamentals & Technical Analysis",
                "eventdate": "2022-03-31 14:30:00",
                "eventmeetid": "89979606849",
                "eventstatus": 1,
                "created_at": null,
                "updated_at": null
            },
            {
                "id": 9,
                "eventtitle": "PAM Talk Ep.09 - Konsep Dasar Perencanaan Keuangan",
                "eventdate": "2022-04-08 16:00:00",
                "eventmeetid": "87070161340",
                "eventstatus": 1,
                "created_at": null,
                "updated_at": null
            }
        ],
        "first_page_url": "http://127.0.0.1:8000/api/dashboard/webinars?page=1",
        "from": 1,
        "last_page": 9,
        "last_page_url": "http://127.0.0.1:8000/api/dashboard/webinars?page=9",
        "links": [
            {
                "url": null,
                "label": "&laquo; Previous",
                "active": false
            },
            {
                "url": "http://127.0.0.1:8000/api/dashboard/webinars?page=1",
                "label": "1",
                "active": true
            },
            {
                "url": "http://127.0.0.1:8000/api/dashboard/webinars?page=2",
                "label": "2",
                "active": false
            },
            {
                "url": "http://127.0.0.1:8000/api/dashboard/webinars?page=3",
                "label": "3",
                "active": false
            },
            {
                "url": "http://127.0.0.1:8000/api/dashboard/webinars?page=4",
                "label": "4",
                "active": false
            },
            {
                "url": "http://127.0.0.1:8000/api/dashboard/webinars?page=5",
                "label": "5",
                "active": false
            },
            {
                "url": "http://127.0.0.1:8000/api/dashboard/webinars?page=6",
                "label": "6",
                "active": false
            },
            {
                "url": "http://127.0.0.1:8000/api/dashboard/webinars?page=7",
                "label": "7",
                "active": false
            },
            {
                "url": "http://127.0.0.1:8000/api/dashboard/webinars?page=8",
                "label": "8",
                "active": false
            },
            {
                "url": "http://127.0.0.1:8000/api/dashboard/webinars?page=9",
                "label": "9",
                "active": false
            },
            {
                "url": "http://127.0.0.1:8000/api/dashboard/webinars?page=2",
                "label": "Next &raquo;",
                "active": false
            }
        ],
        "next_page_url": "http://127.0.0.1:8000/api/dashboard/webinars?page=2",
        "path": "http://127.0.0.1:8000/api/dashboard/webinars",
        "per_page": 10,
        "prev_page_url": null,
        "to": 10,
        "total": 84
    }
}